…
``` r
nrow(count(instacart,aisle))
```

    ## [1] 134

``` r
instacart %>%
  group_by(aisle) %>%
  summarize(n=n()) %>%
  arrange(desc(n))
```

    ## # A tibble: 134 x 2
    ##    aisle                              n
    ##    <chr>                          <int>
    ##  1 fresh vegetables              150609
    ##  2 fresh fruits                  150473
    ##  3 packaged vegetables fruits     78493
    ##  4 yogurt                         55240
    ##  5 packaged cheese                41699
    ##  6 water seltzer sparkling water  36617
    ##  7 milk                           32644
    ##  8 chips pretzels                 31269
    ##  9 soy lactosefree                26240
    ## 10 bread                          23635
    ## # ... with 124 more rows
…
    ## Warning in FUN(X[[i]], ...): strings not representable in native encoding
    ## will be translated to UTF-8

``` r
brfss_adj
```

    ## # A tibble: 4,250 x 23
    ##     year locationabbr locationdesc class topic question response
    ##    <int> <chr>        <chr>        <chr> <chr> <chr>    <chr>   
    ##  1  2010 AL           AL - Jeffer~ Heal~ Over~ How is ~ Poor    
    ##  2  2010 AL           AL - Mobile~ Heal~ Over~ How is ~ Poor    
    ##  3  2010 AL           AL - Tuscal~ Heal~ Over~ How is ~ Poor    
    ##  4  2010 AZ           AZ - Marico~ Heal~ Over~ How is ~ Poor    
    ##  5  2010 AZ           AZ - Pima C~ Heal~ Over~ How is ~ Poor    
    ##  6  2010 AZ           AZ - Pinal ~ Heal~ Over~ How is ~ Poor    
    ##  7  2010 AR           AR - Benton~ Heal~ Over~ How is ~ Poor    
    ##  8  2010 AR           AR - Pulask~ Heal~ Over~ How is ~ Poor    
    ##  9  2010 AR           AR - Washin~ Heal~ Over~ How is ~ Poor    
    ## 10  2010 CA           CA - Alamed~ Heal~ Over~ How is ~ Poor    
    ## # ... with 4,240 more rows, and 16 more variables: sample_size <int>,
    ## #   data_value <dbl>, confidence_limit_low <dbl>,
    ## #   confidence_limit_high <dbl>, display_order <int>,
    ## #   data_value_unit <chr>, data_value_type <chr>,
    ## #   data_value_footnote_symbol <chr>, data_value_footnote <chr>,
    ## #   data_source <chr>, class_id <chr>, topic_id <chr>, location_id <chr>,
    ## #   question_id <chr>, respid <chr>, geo_location <chr>
…
``` r
brfss_adj %>%
  filter(
    year == 2010) %>%
  group_by(year,locationabbr) %>%
  count()%>%
  filter(n>=7)
```

    ## # A tibble: 30 x 3
    ## # Groups:   year, locationabbr [30]
    ##     year locationabbr     n
    ##    <int> <chr>        <int>
    ##  1  2010 CA              24
    ##  2  2010 CO              14
    ##  3  2010 CT              10
    ##  4  2010 FL              82
    ##  5  2010 GA               8
    ##  6  2010 HI               8
    ##  7  2010 ID              12
    ##  8  2010 KS               8
    ##  9  2010 LA              10
    ## 10  2010 MA              18
    ## # ... with 20 more rows
…
    activity_1:activity_1440,
    names_to = "minute",
    names_prefix = "activity_",
    values_to = "activity"
  ) %>%
  mutate(
    weekend =case_when(
      day_id %in% c(3,4) ~"weekend",
      day_id %in% c(1,2,5,6,7) ~"weekday"
    )
  )
accel_data
```

    ## # A tibble: 50,400 x 6
    ##     week day_id day    minute activity weekend
    ##    <int>  <int> <fct>  <chr>     <dbl> <chr>  
    ##  1     1      1 Friday 1          88.4 weekday
    ##  2     1      1 Friday 2          82.2 weekday
    ##  3     1      1 Friday 3          64.4 weekday
    ##  4     1      1 Friday 4          70.0 weekday
    ##  5     1      1 Friday 5          75.0 weekday
    ##  6     1      1 Friday 6          66.3 weekday
    ##  7     1      1 Friday 7          53.8 weekday
    ##  8     1      1 Friday 8          47.8 weekday
    ##  9     1      1 Friday 9          55.5 weekday
    ## 10     1      1 Friday 10         43.0 weekday
    ## # ... with 50,390 more rows

In the tidy version of the data frame, the week, week\_id and minute
variable indicate the date and time of the point measure, and the day
and weekend variable showing which day it is and whether it is weekend

``` r
accel_data %>%
  group_by(week,day)%>%
  summarize(
    total_activity = sum(activity)
  ) 
```

    ## # A tibble: 35 x 3
    ## # Groups:   week [5]
    ##     week day       total_activity
    ##    <int> <fct>              <dbl>
    ##  1     1 Friday           480543.
    ##  2     1 Monday            78828.
    ##  3     1 Saturday         376254 
    ##  4     1 Sunday           631105 
    ##  5     1 Thursday         355924.
    ##  6     1 Tuesday          307094.
    ##  7     1 Wednesday        340115.
    ##  8     2 Friday           568839 
    ##  9     2 Monday           295431 
    ## 10     2 Saturday         607175 
    ## # ... with 25 more rows
…
